0.000392118	0.000245074
0.000392118	0.000294089
0.00156847	0.000612685
0.000392118	0.000568572
0.00156847	0.000735222
0.00156847	0.000854258
0.00627389	0.00153171
0.000392118	0.00140509
0.00156847	0.00142143
0.00156847	0.0014348
0.00627389	0.00183806
0.00156847	0.00181732
0.00627389	0.00213564
0.00627389	0.00241153
0.0250956	0.00382928
0.000392118	0.0036271
0.00156847	0.00351273
0.00156847	0.0034104
0.00627389	0.00355357
0.00156847	0.00345904
0.00627389	0.00358699
0.00627389	0.00370381
0.0250956	0.00459514
0.00156847	0.00447407
0.00627389	0.0045433
0.00627389	0.00460739
0.0250956	0.00533911
0.00627389	0.00537135
0.0250956	0.00602882
0.0250956	0.00664388
0.100382	0.0095732
0.000392118	0.00929499
0.00156847	0.00906774
0.00156847	0.00885347
0.00627389	0.00878182
0.00156847	0.00858686
0.00627389	0.008526
0.00627389	0.00846825
0.0250956	0.00888393
0.00156847	0.00870551
0.00627389	0.00864761
0.00627389	0.00859241
0.0250956	0.00896748
0.00627389	0.00890762
0.0250956	0.00925954
0.0250956	0.00959647
0.100382	0.0114878
0.00156847	0.0112854
0.00627389	0.0111852
0.00627389	0.0110889
0.0247035	0.0113507
0.00588178	0.0112475
0.0235271	0.0114749
0.0235271	0.011694
0.0933242	0.0131517
0.00588178	0.0130242
0.0235271	0.0132053
0.0235271	0.0133802
0.0933242	0.0147126
0.0227429	0.0148443
0.0909715	0.0160721
0.0909715	0.017261
0.362317	0.0226525
0	0.022304
